Analysing the Russia Report
…
Word counts

Let’s try the tidytext package, which is introduced in a great book by Julia Silge and David Robinson.

library(tidytext)

Here’s a tidy tibble with all the words:

rr_words <- rr_tib %>%
  unnest_tokens(word, # the name of the new column
                text) # the column with text
rr_words

## # A tibble: 19,798 x 3
##     page redactions word        
##    <int>      <int> <chr>       
##  1     1          0 intelligence
##  2     1          0 and         
##  3     1          0 security    
##  4     1          0 committee   
##  5     1          0 of          
##  6     1          0 parliament  
##  7     1          0 russia      
##  8     1          0 hc          
##  9     1          0 632         
## 10     2          0 intelligence
## # ... with 19,788 more rows
…
